
    {
        "href": "https://api.spotify.com/v1/me/albums?offset=0&limit=1",
        "items": [
        {
                "album_type": "album",
                "artists": [
                    {
                    "external_urls": {
                        "spotify": "https://open.spotify.com/artist/58RMTlPJKbmpmVk1AmRK3h"
                    },
                    "href": "https://api.spotify.com/v1/artists/58RMTlPJKbmpmVk1AmRK3h",
                    "id": "58RMTlPJKbmpmVk1AmRK3h",
                    "name": "Abidaz",
                    "type": "artist",
                    "uri": "spotify:artist:58RMTlPJKbmpmVk1AmRK3h"
                    }
                ],
                "external_ids": {
                    "upc": "00602537623730"
                },
                "external_urls": {
                    "spotify": "https://open.spotify.com/album/5m4VYOPoIpkV0XgOiRKkWC"
                },
                "genres": [],
                "href": "https://api.spotify.com/v1/albums/5m4VYOPoIpkV0XgOiRKkWC",
                "id": "5m4VYOPoIpkV0XgOiRKkWC",
                "images":
                    [{
                    "height": 640,
                    "url": "https://i.scdn.co/image/ccbb1e3bea2461e69783895e880965b171e29f4c",
                    "width": 640
                    }],
                "name": "In & out",
                "popularity": 49,
                "release_date": "2013-01-01",
                "release_date_precision": "day",
                "tracks": {
                    "href": "https://api.spotify.com/v1/albums/5m4VYOPoIpkV0XgOiRKkWC/tracks?offset=0&limit=50",
                    "items": [
                    {
                        "artists": [
                        {
                            "external_urls": {
                            "spotify": "https://open.spotify.com/artist/58RMTlPJKbmpmVk1AmRK3h"
                            },
                            "href": "https://api.spotify.com/v1/artists/58RMTlPJKbmpmVk1AmRK3h",
                            "id": "58RMTlPJKbmpmVk1AmRK3h",
                            "name": "Abidaz",
                            "type": "artist",
                            "uri": "spotify:artist:58RMTlPJKbmpmVk1AmRK3h"
                        },
                        {
                            "external_urls": {
                            "spotify": "https://open.spotify.com/artist/1l63szZeUpN1m87MOD1u7K"
                            },
                            "href": "https://api.spotify.com/v1/artists/1l63szZeUpN1m87MOD1u7K",
                            "id": "1l63szZeUpN1m87MOD1u7K",
                            "name": "Chapee",
                            "type": "artist",
                            "uri": "spotify:artist:1l63szZeUpN1m87MOD1u7K"
                        },
                        {
                            "external_urls": {
                            "spotify": "https://open.spotify.com/artist/1VLf7Ncxb5Jga6eyd3jh6K"
                            },
                            "href": "https://api.spotify.com/v1/artists/1VLf7Ncxb5Jga6eyd3jh6K",
                            "id": "1VLf7Ncxb5Jga6eyd3jh6K",
                            "name": "C.U.P",
                            "type": "artist",
                            "uri": "spotify:artist:1VLf7Ncxb5Jga6eyd3jh6K"
                        }
                        ],
                        "disc_number": 1,
                        "duration_ms": 170920,
                        "explicit": false,
                        "external_urls": {
                        "spotify": "https://open.spotify.com/track/3VNWq8rTnQG6fM1eldSpZ0"
                        },
                        "href": "https://api.spotify.com/v1/tracks/3VNWq8rTnQG6fM1eldSpZ0",
                        "id": "3VNWq8rTnQG6fM1eldSpZ0",
                        "name": "E.C.",
                        "preview_url": "https://p.scdn.co/mp3-preview/f95e0dba1a76b44fa2b52da2bc273d4f1c4126a5",
                        "track_number": 1,
                        "type": "track",
                        "uri": "spotify:track:3VNWq8rTnQG6fM1eldSpZ0"
                    },
                    {
                        "artists": [
                        {
                            "external_urls": {
                            "spotify": "https://open.spotify.com/artist/58RMTlPJKbmpmVk1AmRK3h"
                            },
                            "href": "https://api.spotify.com/v1/artists/58RMTlPJKbmpmVk1AmRK3h",
                            "id": "58RMTlPJKbmpmVk1AmRK3h",
                            "name": "Abidaz",
                            "type": "artist",
                            "uri": "spotify:artist:58RMTlPJKbmpmVk1AmRK3h"
                        }
                        ],
                        "disc_number": 1,
                        "duration_ms": 165946,
                        "explicit": false,
                        "external_urls": {
                        "spotify": "https://open.spotify.com/track/6ZrVKylVlxkaXHj42O0q2r"
                        },
                        "href": "https://api.spotify.com/v1/tracks/6ZrVKylVlxkaXHj42O0q2r",
                        "id": "6ZrVKylVlxkaXHj42O0q2r",
                        "name": "Råknas - Radio Edit",
                        "preview_url": "https://p.scdn.co/mp3-preview/a7c9a4bfa9e346e3733e9d88076ad1ae409136fb",
                        "track_number": 13,
                        "type": "track",
                        "uri": "spotify:track:6ZrVKylVlxkaXHj42O0q2r"
                    }
                    ],
                    "limit": 50,
                    "next": null,
                    "offset": 0,
                    "previous": null,
                    "total": 13
                },
                "type": "album",
                "uri": "spotify:album:5m4VYOPoIpkV0XgOiRKkWC"
            },
        {
            "album_type": "album",
            "artists": [
              {
                "external_urls": {
                  "spotify": "https://open.spotify.com/artist/5abSRg0xN1NV3gLbuvX24M"
                },
                "href": "https://api.spotify.com/v1/artists/5abSRg0xN1NV3gLbuvX24M",
                "id": "5abSRg0xN1NV3gLbuvX24M",
                "name": "Amr Diab",
                "type": "artist",
                "uri": "spotify:artist:5abSRg0xN1NV3gLbuvX24M"
              }
            ],
            "available_markets": [
              "EG"
            ],
            "external_urls": {
              "spotify": "https://open.spotify.com/album/2IV13wMMDBs2OyqNdAswSP"
            },
            "href": "https://api.spotify.com/v1/albums/2IV13wMMDBs2OyqNdAswSP",
            "id": "2IV13wMMDBs2OyqNdAswSP",
            "images": [
              {
                "height": 640,
                "url": "https://i.scdn.co/image/ab67616d0000b273abf13a20e745572fc39f939b",
                "width": 640
              },
              {
                "height": 300,
                "url": "https://i.scdn.co/image/ab67616d00001e02abf13a20e745572fc39f939b",
                "width": 300
              },
              {
                "height": 64,
                "url": "https://i.scdn.co/image/ab67616d00004851abf13a20e745572fc39f939b",
                "width": 64
              }
            ],
            "name": "Sahran",
            "release_date": "2020-02-17",
            "release_date_precision": "day",
            "total_tracks": 16,
            "type": "album",
            "uri": "spotify:album:2IV13wMMDBs2OyqNdAswSP"
          },
          {
            "album_type": "album",
            "artists": [
              {
                "external_urls": {
                  "spotify": "https://open.spotify.com/artist/5abSRg0xN1NV3gLbuvX24M"
                },
                "href": "https://api.spotify.com/v1/artists/5abSRg0xN1NV3gLbuvX24M",
                "id": "5abSRg0xN1NV3gLbuvX24M",
                "name": "Amr Diab",
                "type": "artist",
                "uri": "spotify:artist:5abSRg0xN1NV3gLbuvX24M"
              }
            ],
            "available_markets": [
              "AD",
              "AE",
              "AR",
              "AT",
              "AU",
              "BE",
              "BG",
              "BH",
              "BO",
              "BR",
              "CA",
              "CH",
              "CL",
              "CO",
              "CR",
              "CY",
              "CZ",
              "DE",
              "DK",
              "DO",
              "DZ",
              "EC",
              "EE",
              "EG",
              "ES",
              "FI",
              "FR",
              "GB",
              "GR",
              "GT",
              "HK",
              "HN",
              "HU",
              "ID",
              "IE",
              "IL",
              "IN",
              "IS",
              "IT",
              "JO",
              "JP",
              "KW",
              "LB",
              "LI",
              "LT",
              "LU",
              "LV",
              "MA",
              "MC",
              "MT",
              "MX",
              "MY",
              "NI",
              "NL",
              "NO",
              "NZ",
              "OM",
              "PA",
              "PE",
              "PH",
              "PL",
              "PS",
              "PT",
              "PY",
              "QA",
              "RO",
              "SA",
              "SE",
              "SG",
              "SK",
              "SV",
              "TH",
              "TN",
              "TR",
              "TW",
              "US",
              "UY",
              "VN",
              "ZA"
            ],
            "external_urls": {
              "spotify": "https://open.spotify.com/album/7eFyrxZRPqw8yvZXMUm88A"
            },
            "href": "https://api.spotify.com/v1/albums/7eFyrxZRPqw8yvZXMUm88A",
            "id": "7eFyrxZRPqw8yvZXMUm88A",
            "images": [
              {
                "height": 640,
                "url": "https://i.scdn.co/image/ab67616d0000b273b4df726e2f184eacb95261a9",
                "width": 640
              },
              {
                "height": 300,
                "url": "https://i.scdn.co/image/ab67616d00001e02b4df726e2f184eacb95261a9",
                "width": 300
              },
              {
                "height": 64,
                "url": "https://i.scdn.co/image/ab67616d00004851b4df726e2f184eacb95261a9",
                "width": 64
              }
            ],
            "name": "Kol Hayaty",
            "release_date": "2018-10-03",
            "release_date_precision": "day",
            "total_tracks": 13,
            "type": "album",
            "uri": "spotify:album:7eFyrxZRPqw8yvZXMUm88A"
          },
          {
            "album_type": "album",
            "artists": [
              {
                "external_urls": {
                  "spotify": "https://open.spotify.com/artist/5abSRg0xN1NV3gLbuvX24M"
                },
                "href": "https://api.spotify.com/v1/artists/5abSRg0xN1NV3gLbuvX24M",
                "id": "5abSRg0xN1NV3gLbuvX24M",
                "name": "Amr Diab",
                "type": "artist",
                "uri": "spotify:artist:5abSRg0xN1NV3gLbuvX24M"
              }
            ],
            "available_markets": [
              "AD",
              "AE",
              "AR",
              "AT",
              "AU",
              "BE",
              "BG",
              "BH",
              "BO",
              "BR",
              "CA",
              "CH",
              "CL",
              "CO",
              "CR",
              "CY",
              "CZ",
              "DE",
              "DK",
              "DO",
              "DZ",
              "EC",
              "EE",
              "EG",
              "ES",
              "FI",
              "FR",
              "GB",
              "GR",
              "GT",
              "HK",
              "HN",
              "HU",
              "ID",
              "IE",
              "IL",
              "IN",
              "IS",
              "IT",
              "JO",
              "JP",
              "KW",
              "LB",
              "LI",
              "LT",
              "LU",
              "LV",
              "MA",
              "MC",
              "MT",
              "MX",
              "MY",
              "NI",
              "NL",
              "NO",
              "NZ",
              "OM",
              "PA",
              "PE",
              "PH",
              "PL",
              "PS",
              "PT",
              "PY",
              "QA",
              "RO",
              "SA",
              "SE",
              "SG",
              "SK",
              "SV",
              "TH",
              "TN",
              "TR",
              "TW",
              "US",
              "UY",
              "VN",
              "ZA"
            ],
            "external_urls": {
              "spotify": "https://open.spotify.com/album/1qmAaW25CPUyam9Wrp9ZEu"
            },
            "href": "https://api.spotify.com/v1/albums/1qmAaW25CPUyam9Wrp9ZEu",
            "id": "1qmAaW25CPUyam9Wrp9ZEu",
            "images": [
              {
                "height": 640,
                "url": "https://i.scdn.co/image/ab67616d0000b2732a37edda69e67266f05a9753",
                "width": 640
              },
              {
                "height": 300,
                "url": "https://i.scdn.co/image/ab67616d00001e022a37edda69e67266f05a9753",
                "width": 300
              },
              {
                "height": 64,
                "url": "https://i.scdn.co/image/ab67616d000048512a37edda69e67266f05a9753",
                "width": 64
              }
            ],
            "name": "تملى معاك",
            "release_date": "2000-01-01",
            "release_date_precision": "day",
            "total_tracks": 10,
            "type": "album",
            "uri": "spotify:album:1qmAaW25CPUyam9Wrp9ZEu"
          },
          {
            "album_type": "album",
            "artists": [
              {
                "external_urls": {
                  "spotify": "https://open.spotify.com/artist/2ifvIECHAlEgPMBuBOJ0lG"
                },
                "href": "https://api.spotify.com/v1/artists/2ifvIECHAlEgPMBuBOJ0lG",
                "id": "2ifvIECHAlEgPMBuBOJ0lG",
                "name": "Bear McCreary",
                "type": "artist",
                "uri": "spotify:artist:2ifvIECHAlEgPMBuBOJ0lG"
              }
            ],
            "available_markets": [
              "AD",
              "AE",
              "AR",
              "AT",
              "AU",
              "BE",
              "BG",
              "BH",
              "BO",
              "BR",
              "CA",
              "CH",
              "CL",
              "CO",
              "CR",
              "CY",
              "CZ",
              "DE",
              "DK",
              "DO",
              "DZ",
              "EC",
              "EE",
              "EG",
              "ES",
              "FI",
              "FR",
              "GB",
              "GR",
              "GT",
              "HK",
              "HN",
              "HU",
              "ID",
              "IE",
              "IL",
              "IS",
              "IT",
              "JO",
              "JP",
              "KW",
              "LB",
              "LI",
              "LT",
              "LU",
              "LV",
              "MA",
              "MC",
              "MT",
              "MX",
              "MY",
              "NI",
              "NL",
              "NO",
              "NZ",
              "OM",
              "PA",
              "PE",
              "PH",
              "PL",
              "PS",
              "PT",
              "PY",
              "QA",
              "RO",
              "SA",
              "SE",
              "SG",
              "SK",
              "SV",
              "TH",
              "TN",
              "TR",
              "TW",
              "US",
              "UY",
              "VN",
              "ZA"
            ],
            "external_urls": {
              "spotify": "https://open.spotify.com/album/6VQkLK6fJO8hFJmEF5dJz4"
            },
            "href": "https://api.spotify.com/v1/albums/6VQkLK6fJO8hFJmEF5dJz4",
            "id": "6VQkLK6fJO8hFJmEF5dJz4",
            "images": [
              {
                "height": 640,
                "url": "https://i.scdn.co/image/ab67616d0000b273b219af484df7512472cfae4e",
                "width": 640
              },
              {
                "height": 300,
                "url": "https://i.scdn.co/image/ab67616d00001e02b219af484df7512472cfae4e",
                "width": 300
              },
              {
                "height": 64,
                "url": "https://i.scdn.co/image/ab67616d00004851b219af484df7512472cfae4e",
                "width": 64
              }
            ],
            "name": "Godzilla: King of the Monsters (Original Motion Picture Soundtrack)",
            "release_date": "2019-05-24",
            "release_date_precision": "day",
            "total_tracks": 26,
            "type": "album",
            "uri": "spotify:album:6VQkLK6fJO8hFJmEF5dJz4"
          },
          {
            "album_type": "album",
            "artists": [
              {
                "external_urls": {
                  "spotify": "https://open.spotify.com/artist/1TKaUU8ooBgSW9TlyKsw6k"
                },
                "href": "https://api.spotify.com/v1/artists/1TKaUU8ooBgSW9TlyKsw6k",
                "id": "1TKaUU8ooBgSW9TlyKsw6k",
                "name": "Fu Manchu",
                "type": "artist",
                "uri": "spotify:artist:1TKaUU8ooBgSW9TlyKsw6k"
              }
            ],
            "available_markets": [
              "AD",
              "AE",
              "AR",
              "AT",
              "AU",
              "BE",
              "BG",
              "BH",
              "BO",
              "BR",
              "CA",
              "CH",
              "CL",
              "CO",
              "CR",
              "CY",
              "CZ",
              "DE",
              "DK",
              "DO",
              "DZ",
              "EC",
              "EE",
              "EG",
              "ES",
              "FI",
              "FR",
              "GB",
              "GR",
              "GT",
              "HK",
              "HN",
              "HU",
              "ID",
              "IE",
              "IL",
              "IN",
              "IS",
              "IT",
              "JO",
              "JP",
              "KW",
              "LB",
              "LI",
              "LT",
              "LU",
              "LV",
              "MA",
              "MC",
              "MT",
              "MX",
              "MY",
              "NI",
              "NL",
              "NO",
              "NZ",
              "OM",
              "PA",
              "PE",
              "PH",
              "PL",
              "PS",
              "PT",
              "PY",
              "QA",
              "RO",
              "SA",
              "SE",
              "SG",
              "SK",
              "SV",
              "TH",
              "TN",
              "TR",
              "TW",
              "US",
              "UY",
              "VN",
              "ZA"
            ],
            "external_urls": {
              "spotify": "https://open.spotify.com/album/7GyCk26ieCcV2CAtheDuYF"
            },
            "href": "https://api.spotify.com/v1/albums/7GyCk26ieCcV2CAtheDuYF",
            "id": "7GyCk26ieCcV2CAtheDuYF",
            "images": [
              {
                "height": 640,
                "url": "https://i.scdn.co/image/ab67616d0000b2732ee16776f180081db67652fe",
                "width": 640
              },
              {
                "height": 300,
                "url": "https://i.scdn.co/image/ab67616d00001e022ee16776f180081db67652fe",
                "width": 300
              },
              {
                "height": 64,
                "url": "https://i.scdn.co/image/ab67616d000048512ee16776f180081db67652fe",
                "width": 64
              }
            ],
            "name": "Godzilla's / Eatin' Dust",
            "release_date": "2010-08-14",
            "release_date_precision": "day",
            "total_tracks": 8,
            "type": "album",
            "uri": "spotify:album:7GyCk26ieCcV2CAtheDuYF"
          },
          {
            "album_type": "single",
            "artists": [
              {
                "external_urls": {
                  "spotify": "https://open.spotify.com/artist/1akll7SRGZblDrbCF5eqYW"
                },
                "href": "https://api.spotify.com/v1/artists/1akll7SRGZblDrbCF5eqYW",
                "id": "1akll7SRGZblDrbCF5eqYW",
                "name": "Moro",
                "type": "artist",
                "uri": "spotify:artist:1akll7SRGZblDrbCF5eqYW"
              }
            ],
            "available_markets": [
              "AD",
              "AE",
              "AR",
              "AT",
              "AU",
              "BE",
              "BG",
              "BH",
              "BO",
              "BR",
              "CA",
              "CH",
              "CL",
              "CO",
              "CR",
              "CY",
              "CZ",
              "DE",
              "DK",
              "DO",
              "DZ",
              "EC",
              "EE",
              "EG",
              "ES",
              "FI",
              "FR",
              "GB",
              "GR",
              "GT",
              "HK",
              "HN",
              "HU",
              "ID",
              "IE",
              "IL",
              "IN",
              "IS",
              "IT",
              "JO",
              "JP",
              "KW",
              "LB",
              "LI",
              "LT",
              "LU",
              "LV",
              "MA",
              "MC",
              "MT",
              "MX",
              "MY",
              "NI",
              "NL",
              "NO",
              "NZ",
              "OM",
              "PA",
              "PE",
              "PH",
              "PL",
              "PS",
              "PT",
              "PY",
              "QA",
              "RO",
              "SA",
              "SE",
              "SG",
              "SK",
              "SV",
              "TH",
              "TN",
              "TR",
              "TW",
              "US",
              "UY",
              "VN",
              "ZA"
            ],
            "external_urls": {
              "spotify": "https://open.spotify.com/album/0ITqrQGD4pHItdHKudeOQx"
            },
            "href": "https://api.spotify.com/v1/albums/0ITqrQGD4pHItdHKudeOQx",
            "id": "0ITqrQGD4pHItdHKudeOQx",
            "images": [
              {
                "height": 640,
                "url": "https://i.scdn.co/image/ab67616d0000b273b1663a1cf2bb5b1210d427ef",
                "width": 640
              },
              {
                "height": 300,
                "url": "https://i.scdn.co/image/ab67616d00001e02b1663a1cf2bb5b1210d427ef",
                "width": 300
              },
              {
                "height": 64,
                "url": "https://i.scdn.co/image/ab67616d00004851b1663a1cf2bb5b1210d427ef",
                "width": 64
              }
            ],
            "name": "Godzilla",
            "release_date": "2019-05-25",
            "release_date_precision": "day",
            "total_tracks": 1,
            "type": "album",
            "uri": "spotify:album:0ITqrQGD4pHItdHKudeOQx"
          }
        ],
        "limit": 1,
        "next": "https://api.spotify.com/v1/me/albums?offset=1&limit=1",
        "offset": 0,
        "previous": null,
        "total": 19
    }